<?xml version="1.0" encoding="UTF-8" standalone="no"?>
<!-- Created with Inkscape (http://www.inkscape.org/) -->

<svg
   xmlns:dc="http://purl.org/dc/elements/1.1/"
   xmlns:cc="http://creativecommons.org/ns#"
   xmlns:rdf="http://www.w3.org/1999/02/22-rdf-syntax-ns#"
   xmlns:svg="http://www.w3.org/2000/svg"
   xmlns="http://www.w3.org/2000/svg"
   xmlns:xlink="http://www.w3.org/1999/xlink"
   xmlns:sodipodi="http://sodipodi.sourceforge.net/DTD/sodipodi-0.dtd"
   xmlns:inkscape="http://www.inkscape.org/namespaces/inkscape"
   width="32px"
   height="32px"
   id="svg5780"
   version="1.1"
   inkscape:version="0.48.5 r10040"
   inkscape:export-filename="O:\org\prog\ioq3\build\release-mingw32-x86\foobar\gfx\2d\numbers\seven_32b.png"
   inkscape:export-xdpi="90"
   inkscape:export-ydpi="90"
   sodipodi:docname="seven_32b.svg">
  <defs
     id="defs5782">
    <linearGradient
       id="linearGradient6314">
      <stop
         style="stop-color:#ffffff;stop-opacity:1;"
         offset="0"
         id="stop6316" />
      <stop
         style="stop-color:#969696;stop-opacity:1;"
         offset="1"
         id="stop6318" />
    </linearGradient>
    <linearGradient
       inkscape:collect="always"
       xlink:href="#linearGradient6314"
       id="linearGradient6320"
       x1="-8.607378"
       y1="3.3896241"
       x2="-9.2628384"
       y2="26.710312"
       gradientUnits="userSpaceOnUse" />
    <linearGradient
       inkscape:collect="always"
       xlink:href="#linearGradient6314"
       id="linearGradient6330"
       gradientUnits="userSpaceOnUse"
       x1="-8.607378"
       y1="3.3896241"
       x2="-9.2628384"
       y2="26.710312" />
    <linearGradient
       inkscape:collect="always"
       xlink:href="#linearGradient6314"
       id="linearGradient6332"
       gradientUnits="userSpaceOnUse"
       x1="-8.607378"
       y1="3.3896241"
       x2="-9.2628384"
       y2="26.710312" />
    <linearGradient
       inkscape:collect="always"
       xlink:href="#linearGradient6314"
       id="linearGradient6334"
       gradientUnits="userSpaceOnUse"
       x1="-8.607378"
       y1="3.3896241"
       x2="-9.2628384"
       y2="26.710312" />
    <linearGradient
       inkscape:collect="always"
       xlink:href="#linearGradient6314"
       id="linearGradient6336"
       gradientUnits="userSpaceOnUse"
       x1="-8.29883"
       y1="6.4751053"
       x2="-8.4914684"
       y2="28.715874" />
  </defs>
  <sodipodi:namedview
     id="base"
     pagecolor="#ffffff"
     bordercolor="#666666"
     borderopacity="1.0"
     inkscape:pageopacity="0.0"
     inkscape:pageshadow="2"
     inkscape:zoom="11.197802"
     inkscape:cx="1.4435719"
     inkscape:cy="16"
     inkscape:current-layer="g5796"
     showgrid="true"
     inkscape:grid-bbox="true"
     inkscape:document-units="px"
     inkscape:window-width="1680"
     inkscape:window-height="1003"
     inkscape:window-x="-4"
     inkscape:window-y="-4"
     inkscape:window-maximized="1" />
  <metadata
     id="metadata5785">
    <rdf:RDF>
      <cc:Work
         rdf:about="">
        <dc:format>image/svg+xml</dc:format>
        <dc:type
           rdf:resource="http://purl.org/dc/dcmitype/StillImage" />
        <dc:title></dc:title>
      </cc:Work>
    </rdf:RDF>
  </metadata>
  <g
     inkscape:groupmode="layer"
     inkscape:label="Layer 1 copy"
     id="g5796"
     style="display:inline">
    <flowRoot
       transform="matrix(1.2725442,0,0,1.2725442,26.124763,-6.1534083)"
       style="font-size:40px;font-style:normal;font-weight:normal;line-height:125%;letter-spacing:0px;word-spacing:0px;fill:#000000;fill-opacity:1;stroke:#000000;stroke-width:1.57165464;stroke-miterlimit:4;stroke-opacity:1;stroke-dasharray:none;font-family:Sans"
       id="flowRoot5798"
       xml:space="preserve"><flowRegion
         id="flowRegion5800"><rect
           y="-7.2934256"
           x="-16.253189"
           height="51.170757"
           width="71.978409"
           id="rect5802"
           style="stroke:#000000;stroke-width:1.57165464;stroke-miterlimit:4;stroke-opacity:1;stroke-dasharray:none" /></flowRegion><flowPara
         style="font-style:normal;font-variant:normal;font-weight:normal;font-stretch:normal;stroke:#000000;stroke-width:1.57165464;stroke-miterlimit:4;stroke-opacity:1;stroke-dasharray:none;font-family:Nicks Font;-inkscape-font-specification:Nicks Font"
         id="flowPara5804">8</flowPara></flowRoot>  </g>
  <g
     id="layer1"
     inkscape:label="Layer 1"
     inkscape:groupmode="layer"
     style="display:inline">
    <flowRoot
       xml:space="preserve"
       id="flowRoot5788"
       style="font-size:40px;font-style:normal;font-weight:normal;line-height:125%;letter-spacing:0px;word-spacing:0px;fill:url(#linearGradient6336);fill-opacity:1;stroke:none;font-family:Sans"
       transform="matrix(1.2725442,0,0,1.2725442,26.124763,-6.1534083)"><flowRegion
         id="flowRegion5790"
         style="fill:url(#linearGradient6332);fill-opacity:1"><rect
           id="rect5792"
           width="71.978409"
           height="51.170757"
           x="-16.253189"
           y="-7.2934256"
           style="fill:url(#linearGradient6330);fill-opacity:1;stroke:none" /></flowRegion><flowPara
         id="flowPara5794"
         style="font-style:normal;font-variant:normal;font-weight:normal;font-stretch:normal;fill:url(#linearGradient6334);fill-opacity:1;stroke:none;font-family:Nicks Font;-inkscape-font-specification:Nicks Font">8</flowPara></flowRoot>  </g>
</svg>
